{
	"index": {
		"dest": "<%= paths.output %>/index.html",
		"files": ["<%= paths.layouts %>/gl-layout.mustache"],
		"data": [
			"<%= paths.data %>/gl-base.json",
			"<%= paths.data %>/gl-index.json"
		]
	},
	"typography": {
		"dest": "<%= paths.output %>/typography.html",
		"files": ["<%= paths.layouts %>/gl-layout.mustache"],
		"data": [
			"<%= paths.data %>/gl-base.json",
			"<%= paths.data %>/gl-typography.json"
		]
	},
	"modules": {
		"dest": "<%= paths.output %>/modules.html",
		"files": ["<%= paths.layouts %>/gl-layout.mustache"],
		"data": [
			"<%= paths.data %>/gl-base.json",
			"<%= paths.data %>/gl-modules.json"
		]
	},
	"colors": {
		"dest": "<%= paths.output %>/colors.html",
		"files": ["<%= paths.layouts %>/gl-layout.mustache"],
		"data": [
			"<%= paths.data %>/gl-base.json",
			"<%= paths.data %>/gl-colors.json"
		]
	},
	"gridsystem": {
		"dest": "<%= paths.output %>/gridsystem.html",
		"files": ["<%= paths.layouts %>/gl-layout.mustache"],
		"data": [
			"<%= paths.data %>/gl-base.json",
			"<%= paths.data %>/gl-gridsystem.json"
		]
	},
	"forms": {
		"dest": "<%= paths.output %>/forms.html",
		"files": ["<%= paths.layouts %>/gl-layout.mustache"],
		"data": [
			"<%= paths.data %>/gl-base.json",
			"<%= paths.data %>/gl-forms.json"
		]
	}
}